{
	"info": {
		"_postman_id": "c1eee9d2-7462-45ec-b0c1-80670ed5e59c",
		"name": "Barang",
		"schema": "https://schema.getpostman.com/json/collection/v2.1.0/collection.json"
	},
	"item": [
		{
			"name": "Insert Data Barang",
			"request": {
				"method": "POST",
				"header": [
					{
						"key": "JWT",
						"value": "{{token}}",
						"type": "text"
					}
				],
				"body": {
					"mode": "raw",
					"raw": "{\r\n    \"nama\" : \"lemari\",\r\n    \"harga\" : 400000\r\n}",
					"options": {
						"raw": {
							"language": "json"
						}
					}
				},
				"url": {
					"raw": "http://127.0.0.1:5000/barang",
					"protocol": "http",
					"host": [
						"127",
						"0",
						"0",
						"1"
					],
					"port": "5000",
					"path": [
						"barang"
					]
				}
			},
			"response": []
		},
		{
			"name": "Update Data Barang",
			"request": {
				"method": "PUT",
				"header": [
					{
						"key": "JWT",
						"value": "{{token}}",
						"type": "text"
					}
				],
				"body": {
					"mode": "raw",
					"raw": "{\r\n    \"harga\": 5000,\r\n    \"nama\": \"pensil\"\r\n}",
					"options": {
						"raw": {
							"language": "json"
						}
					}
				},
				"url": {
					"raw": "http://127.0.0.1:5000/barang/2",
					"protocol": "http",
					"host": [
						"127",
						"0",
						"0",
						"1"
					],
					"port": "5000",
					"path": [
						"barang",
						"2"
					]
				}
			},
			"response": []
		},
		{
			"name": "Get Data Barang",
			"request": {
				"method": "GET",
				"header": [
					{
						"key": "JWT",
						"value": "{{token}}",
						"type": "text"
					}
				],
				"url": {
					"raw": "http://127.0.0.1:5000/barang",
					"protocol": "http",
					"host": [
						"127",
						"0",
						"0",
						"1"
					],
					"port": "5000",
					"path": [
						"barang"
					]
				}
			},
			"response": []
		},
		{
			"name": "Get Data Barang By ID",
			"request": {
				"method": "GET",
				"header": [
					{
						"key": "JWT",
						"value": "{{token}}",
						"type": "text"
					}
				],
				"url": {
					"raw": "http://103.41.206.242:5000/barang/3",
					"protocol": "http",
					"host": [
						"103",
						"41",
						"206",
						"242"
					],
					"port": "5000",
					"path": [
						"barang",
						"3"
					]
				}
			},
			"response": []
		},
		{
			"name": "Delete Data Barang By ID",
			"request": {
				"method": "DELETE",
				"header": [
					{
						"key": "JWT",
						"value": "{{token}}",
						"type": "text"
					}
				],
				"url": {
					"raw": "http://127.0.0.1:5000/barang/4",
					"protocol": "http",
					"host": [
						"127",
						"0",
						"0",
						"1"
					],
					"port": "5000",
					"path": [
						"barang",
						"4"
					]
				}
			},
			"response": []
		},
		{
			"name": "Login",
			"request": {
				"method": "POST",
				"header": [],
				"body": {
					"mode": "raw",
					"raw": "{\r\n    \"username\": \"admin\",\r\n    \"password\": \"admin123\"\r\n}",
					"options": {
						"raw": {
							"language": "json"
						}
					}
				},
				"url": {
					"raw": "{{url}}/login",
					"host": [
						"{{url}}"
					],
					"path": [
						"login"
					]
				}
			},
			"response": []
		}
	]
}